<svg xmlns="http://www.w3.org/2000/svg" width="144" height="62" viewBox="0 0 144 62">
    <g fill="none" fill-rule="nonzero">
        <path fill="#22296C" d="M137.743 35.734c1.07-.028 2.131-.21 3.149-.544l-.379-1.773a8.686 8.686 0 0 1-2.495.436c-1.71 0-2.662-.573-2.662-2.67V22.35h4.617v-1.827h-4.646v-3.056h-2.08v3.052h-2.171v1.827h2.171v8.915c0 3.517 1.739 4.472 4.505 4.472h-.009zm-9.683-18.565v-2.533h-2.08v2.537l2.08-.004zm-2.117 18.236h2.163v-14.88h-2.171l.008 14.88zm-10.452-1.552c-2.254 0-4.047-1.744-4.047-5.697 0-3.189 1.169-6.228 5.05-6.228a7.915 7.915 0 0 1 2.74.465v9.795c-.694.614-2.067 1.665-3.751 1.665h.008zm-.27 1.827c1.871 0 2.957-.735 4.018-1.69v1.415h2.146V14.852h-2.146v5.672a9.003 9.003 0 0 0-2.608-.382c-4.289 0-7.358 2.491-7.358 8.15-.004 6.17 3.606 7.388 5.94 7.388h.008zm-18.55-8.915c.245-3.322 1.9-4.933 4.042-4.933 2.417 0 3.473 1.91 3.473 4.933H96.67zm4.816 8.969c1.592.03 3.177-.238 4.67-.79l-.378-1.743a12.197 12.197 0 0 1-3.935.68c-2.824 0-5.157-.9-5.211-5.505h9.774v-.789c0-4.962-1.71-7.44-5.482-7.44-3.61 0-6.46 2.316-6.46 8.12.005 5.669 2.721 7.467 7.022 7.467zm-16.725-.329h2.167V24.448c.707-1.092 2.08-2.371 3.856-2.371a6.737 6.737 0 0 1 1.763.191l.354-1.827a5.89 5.89 0 0 0-1.739-.245 4.947 4.947 0 0 0-4.234 2.317v-1.989h-2.146l-.02 14.881zm-6.95.329c1.21.02 2.414-.174 3.556-.573l-.324-1.744c-.975.303-1.99.46-3.012.465-4.047 0-5.407-2.043-5.407-5.726 0-4.152 1.739-6.133 4.833-6.133a8.472 8.472 0 0 1 3.286.735l.653-1.719a8.251 8.251 0 0 0-3.934-.901c-4.318 0-7.03 2.782-7.03 8.122.013 5.074 2.355 7.474 7.396 7.474h-.017z"/>
        <path fill="#808285" d="M140.892 44.337h-.55l-1.422-2.222a.967.967 0 0 1-.091-.174c.01.138.01.277 0 .415v1.98h-.487v-3.022h.578l1.398 2.167c.058.092.096.154.112.187a2.62 2.62 0 0 1-.02-.415v-1.939h.482v3.023zm-4.575-2.633a.832.832 0 0 0-.678.308 1.414 1.414 0 0 0 0 1.627.832.832 0 0 0 .661.307.858.858 0 0 0 .686-.29c.18-.238.269-.533.25-.83.017-.297-.07-.591-.246-.831a.832.832 0 0 0-.657-.29h-.016zm-.025 2.683a1.361 1.361 0 0 1-1.048-.416 1.551 1.551 0 0 1-.396-1.1 1.66 1.66 0 0 1 .416-1.163c.287-.288.684-.44 1.09-.415.387-.016.761.135 1.027.415.268.303.409.697.391 1.1.019.43-.13.85-.416 1.172a1.386 1.386 0 0 1-1.048.407h-.016zm-1.993-.05h-.515v-3.023h.515v3.023zm-.956-2.595h-.87v2.595h-.503v-2.595h-.87v-.416h2.239l.004.416zm-3.007 1.416l-.416-1.205a1.269 1.269 0 0 1-.042-.19 1.219 1.219 0 0 1-.042.19l-.415 1.205h.915zm.956 1.179h-.549l-.27-.768h-1.19l-.262.768h-.549l1.132-3.019h.582l1.106 3.019zm-2.945-2.815l-1.663 2.379h1.638v.415h-2.341v-.228l1.664-2.367h-1.535v-.415h2.233l.004.216zm-2.807 2.802h-.516v-3.01h.516v3.01zm-1.248 0h-.549l-1.46-2.209a.971.971 0 0 1-.091-.174c.009.138.009.277 0 .415v1.98h-.487v-3.022h.578l1.398 2.167c.058.092.095.154.112.187a2.624 2.624 0 0 1-.02-.415v-1.939h.482l.037 3.01zm-3.935-1.179l-.415-1.204a1.29 1.29 0 0 1-.042-.191 1.244 1.244 0 0 1-.042.191l-.416 1.204h.915zm.957 1.18h-.57l-.27-.769h-1.19l-.262.768h-.549l1.132-3.018h.565l1.144 3.018zm-3.136-.208a2.17 2.17 0 0 1-1.052.257 1.465 1.465 0 0 1-1.086-.415 1.493 1.493 0 0 1-.416-1.105c-.015-.429.15-.845.454-1.15a1.574 1.574 0 0 1 1.156-.448c.284-.006.567.045.832.15v.53a1.466 1.466 0 0 0-.832-.232 1.057 1.057 0 0 0-.79.32 1.132 1.132 0 0 0-.308.83c-.02.301.075.598.266.83a.916.916 0 0 0 .72.3c.187.005.373-.037.54-.12v-.719h-.636v-.415h1.135l.017 1.387zm-4.5-2.409v.98h.416a.62.62 0 0 0 .212-.033.491.491 0 0 0 .282-.266.551.551 0 0 0 .042-.215.415.415 0 0 0-.137-.341.575.575 0 0 0-.395-.12l-.42-.005zm1.838 2.616h-.586l-.483-.81a1.557 1.557 0 0 0-.129-.19.777.777 0 0 0-.125-.13.416.416 0 0 0-.141-.074.592.592 0 0 0-.17-.025h-.204v1.246h-.5v-3.027h.995c.132-.001.263.015.39.05.113.03.22.083.312.153.089.067.16.154.208.254a.796.796 0 0 1 .075.357.764.764 0 0 1-.183.531.832.832 0 0 1-.212.179c-.087.05-.18.088-.278.112a.79.79 0 0 1 .14.104l.117.116c.04.042.076.086.109.133l.12.174.545.847zm-4.334-2.632a.832.832 0 0 0-.678.307 1.414 1.414 0 0 0 0 1.628.832.832 0 0 0 .661.307.858.858 0 0 0 .687-.29c.18-.239.268-.533.25-.831.017-.297-.07-.59-.246-.83a.833.833 0 0 0-.695-.279l.021-.012zm-.025 2.682a1.361 1.361 0 0 1-1.048-.415 1.551 1.551 0 0 1-.395-1.1 1.66 1.66 0 0 1 .416-1.163c.286-.289.683-.44 1.09-.415.386-.017.76.135 1.027.415.268.303.408.697.39 1.1.02.43-.13.85-.415 1.171a1.386 1.386 0 0 1-1.082.42l.017-.013zm-2.878-2.645h-.886v2.595h-.5V41.73h-.873v-.415h2.238l.02.415zm-2.687 2.595h-.516v-3.01h.516v3.01zm-3.115-2.595v2.172h.416c.305.02.605-.085.831-.29.21-.225.316-.526.296-.831 0-.706-.366-1.06-1.098-1.06l-.445.01zm-.5 2.595v-3.01h.874c1.11 0 1.664.491 1.664 1.474.017.425-.153.836-.466 1.125a1.774 1.774 0 0 1-1.248.415l-.823-.004zm-.536 0h-1.697v-3.01h1.63v.415h-1.135v.856h1.04V43h-1.04v.893h1.198l.004.431zm-3.889-2.616v.98h.416a.62.62 0 0 0 .212-.033.495.495 0 0 0 .17-.104.46.46 0 0 0 .113-.162.551.551 0 0 0 .042-.215.415.415 0 0 0-.138-.341.575.575 0 0 0-.395-.12l-.42-.005zm1.838 2.616h-.607l-.482-.81a1.561 1.561 0 0 0-.13-.19.777.777 0 0 0-.124-.13.416.416 0 0 0-.141-.074.592.592 0 0 0-.171-.025h-.204v1.246h-.499v-3.027h.994c.132-.001.264.015.391.05.113.03.219.083.312.153.088.067.16.154.208.254a.796.796 0 0 1 .075.357.76.76 0 0 1-.183.531.832.832 0 0 1-.212.179c-.087.05-.181.088-.279.112.051.03.098.064.142.104l.116.116c.04.042.075.086.108.133l.12.174.566.847zm-2.911-.128c-.26.123-.544.185-.832.178a1.39 1.39 0 0 1-1.056-.415 1.51 1.51 0 0 1-.416-1.088 1.585 1.585 0 0 1 .445-1.17c.297-.3.705-.462 1.127-.45a1.85 1.85 0 0 1 .728.125v.499a1.3 1.3 0 0 0-.674-.183c-.298-.013-.588.1-.799.311a1.153 1.153 0 0 0-.303.83c-.015.294.088.581.287.798a.99.99 0 0 0 .748.295c.263.006.522-.065.745-.204v.474zm-3.743.128h-1.664v-3.01h.503v2.595h1.173l-.012.415zm-3.045-1.179l-.416-1.204a1.29 1.29 0 0 1-.042-.191 1.202 1.202 0 0 1-.041.191l-.416 1.204h.915zm.957 1.18h-.55l-.27-.769h-1.19l-.261.768h-.55l1.132-3.018h.566l1.123 3.018zm-4.992-.121v-.515c.05.044.107.082.167.112.065.035.133.064.204.087.07.023.143.041.216.054.066.006.133.006.2 0a.833.833 0 0 0 .47-.103.349.349 0 0 0 .153-.308.332.332 0 0 0-.05-.187.52.52 0 0 0-.145-.145 1.469 1.469 0 0 0-.216-.124l-.27-.125a3.073 3.073 0 0 1-.288-.166 1.247 1.247 0 0 1-.233-.187.746.746 0 0 1-.212-.536.692.692 0 0 1 .096-.37.806.806 0 0 1 .254-.26c.11-.071.23-.123.357-.154.136-.034.276-.05.416-.05.236-.013.47.023.69.108v.494a1.112 1.112 0 0 0-.66-.187 1.17 1.17 0 0 0-.221.02.645.645 0 0 0-.2.071.416.416 0 0 0-.141.125.307.307 0 0 0-.054.183c-.002.06.012.12.041.174.032.054.074.1.125.137.063.047.13.087.2.12l.27.125c.106.055.205.114.3.174.089.058.17.124.245.2.07.071.128.154.17.245a.709.709 0 0 1 .063.303.714.714 0 0 1-.341.643 1.132 1.132 0 0 1-.362.142c-.137.029-.276.044-.416.045h-.187l-.229-.033a2.012 2.012 0 0 1-.22-.054.729.729 0 0 1-.192-.046v-.012zm-2.05-2.491v.98h.416a.62.62 0 0 0 .212-.034.49.49 0 0 0 .283-.265.551.551 0 0 0 .041-.216.415.415 0 0 0-.137-.34.575.575 0 0 0-.395-.121l-.42-.004zm1.838 2.615h-.594l-.483-.81a1.528 1.528 0 0 0-.129-.19.773.773 0 0 0-.125-.129.416.416 0 0 0-.141-.075.592.592 0 0 0-.17-.025h-.2v1.246h-.5v-3.031h.995c.132-.001.263.015.39.05.114.03.22.083.313.153.088.067.16.154.208.254a.796.796 0 0 1 .074.357.764.764 0 0 1-.183.531.832.832 0 0 1-.212.179c-.087.05-.18.088-.278.112.05.03.098.064.141.104l.117.116c.039.042.075.086.108.133l.12.174.55.851zm-2.874 0h-1.697v-3.014h1.63v.415h-1.126v.856h1.04V43h-1.04v.893h1.197l-.004.435zm-2.08-3.018l-1.085 3.018h-.586l-1.07-3.018h.55l.748 2.292c.026.083.044.167.054.253a1.31 1.31 0 0 1 .063-.257l.765-2.288h.562zm-3.127 3.027h-.516v-3.023h.516v3.023zm-1.248 0h-.549l-1.443-2.222a.967.967 0 0 1-.092-.174c.01.138.01.277 0 .415v1.98h-.486v-3.022h.582l1.397 2.167c.059.092.096.154.113.187a2.624 2.624 0 0 1-.021-.415v-1.939h.482l.017 3.023zm-3.277-1.22c0 .846-.403 1.27-1.207 1.27s-1.19-.409-1.156-1.225v-1.848h.503v1.744c0 .592.23.888.69.888.461 0 .683-.285.666-.855v-1.777h.504v1.802z"/>
        <path fill="#22296C" d="M0 0h59.881v59.779H0z"/>
        <path fill="#FFF" d="M38.802 41.314h3.406l7.105-20.72h-3.594l-3.165 9.468-.774 2.462-.69-2.491-2.741-9.438h-3.827l4.891 14.769h1.348l-1.959 5.95zm-28.233-5.95h3.54V24.568a6.662 6.662 0 0 1 3.46-1.191c1.834 0 2.233.892 2.233 3.03v8.957h3.515v-9.388c0-.47-.026-.94-.079-1.408.986-.622 2.288-1.216 3.485-1.216 1.864 0 2.288 1.054 2.288 3.056v8.956h3.54v-9.359c0-2.516-.054-5.788-4.605-5.788-2.05 0-3.964 1.216-5.082 2.217-.587-1.324-1.889-2.217-4.043-2.217-1.755 0-3.515 1-4.709 1.976v-1.598H10.57v14.769z"/>
    </g>
</svg>
